{
  "type": "service_account",
  "project_id": "api-top-info-du-site-linfo",
  "private_key_id": "6720de9cf553e53d7aa088a0da4aa590bb3cd287",
  "private_key": "-----BEGIN PRIVATE KEY-----\nMIIEvwIBADANBgkqhkiG9w0BAQEFAASCBKkwggSlAgEAAoIBAQDPaRhxHdgapD3x\n2087IGDiJdNPFgzWoluYUp8auQOswtUpOnwBpEiSplRGvKd1WWXrRIC0shkjf1RX\nr6zME5IxiBgw27K+oCcTD1So4iNUFITviTPzOS9g0VEIW19V5IuxkKzqdP1atKJe\npSCjFPF1Sfihl/3BPUtDAR4hu4IWqrMgSByYjgzSRby4NxWA5GsLCQU6QCRdLrzx\nWtuKl5inWz7KQJpRrIUMVkJIgmDcDX+k+EJPBcZjfF6LwwhLRNLMNkxtO6h2DL29\niW1qOnxO01ijDIg8BVJc5lLlVU+fmUCD5HOqXVahWk80UMt1oXi+a5X2liznbDM/\n2kDyXi7hAgMBAAECggEBAMmZmIVSgdwbao5sIc4RwbnvFD5Z626wbyFWpYme7eB9\nnB2v2BrsaRIKE/6Rnp9knrkYY5W/SsoDGKMGgYn3N/FnHERZN5ssJe7TxvFEpRwz\nuabukI1INzH/Iqlhzv+43sNgIYLe5efFjdE65cc+MxhTJxVCnAa5Ii9lpbkZ/e8y\niAjG2qhh6+klzhwVpOEVmeLrUwhUJfDmdFW2TakyCynyU1/NAzITFjlcdwCJ8zNf\nGvb3LrHuJ49HTG8pn+1xanylhPaP2X+neTeSZwuDit/jeJQsrLd0vJmTpCtj/wyG\nbHv2Q0SiPhMRJosc7jwNaMH4tlm5ps0h0P6r4lpj0lUCgYEA/2SXh7vmiYE1qcMM\nRWJLe6hfLp1xcUJCEgN2CVeI0JuIYH3an1QFd4rDQA6TpyDWxwa1dHN86zMritHE\nVqYkHSLaj1RBuZvoRC+WAeRMu69LQzJx+/8PAHgTB6Oi90m5oq7TVB3ZPBy7NVAs\nCRYfHbfKAHR5Z2mURGnND+68IxcCgYEAz+dOVS74/Ql7RAwmz3cua+3ecsR3zfl5\ngTWuw1cMDBaOToe+/w63Ewzdwq5w5xkUPRzodZvbkpugKbC4JeJBh/73XgdyeM+F\nXjXnsNTPlwf4WbI3nCn827RVd5Zth6FcOw2i3PpxjNGdxcHPLZT/G25n+DUmGM9I\nD286RiPJWMcCgYEAwSS3AFzXNWh1SASNVC/JPCSSjzNcprXgN7VMYDZF7tWhJrAn\nVVV6qPRVQy2C9uL76xqkwgPRFiLlrB+F563QJATG25xx9Ef3ORHv1VBtw4cHWTNe\nRqCXHNiyM5XKWk/0RxcGFVhZgH+OCPyvwNNtBtGGwB9V7SJIkhCdl44J1FMCgYEA\npn0zC6A8IFZxcgLRKZ7le+TXGM0gq7+2f7R/qUqSCTQe7eBjIVmlXgoVpIuROl+p\nB2+Y8GXJplQeJISyUxQnKkMR0SjhkMGOqe09ByzEuMvXI+1F/zbYmRCGyOeb+ttL\nQrcezxt3xy8ty2nzASuqR0tY0zmssn171XBbGEQcP40CgYB8S3tezQ72YT94i+YW\nE5QkOMFx/YkSSyBRHBOZqoyt70ICJZ2v+GGHH19QPArmxxz3d3JOUbpwv1IgicgC\n17PFXeM7gBSL5/kdfk3Xk2UDeIQQXKV9YElvquhR+EBiWG1me4qPMawRBWeFlReY\ngxBbI+R6npXxopMQs1jQ+zQCqA==\n-----END PRIVATE KEY-----\n",
  "client_email": "compte-de-service-top-infos-li@api-top-info-du-site-linfo.iam.gserviceaccount.com",
  "client_id": "107592030772718278315",
  "auth_uri": "https://accounts.google.com/o/oauth2/auth",
  "token_uri": "https://accounts.google.com/o/oauth2/token",
  "auth_provider_x509_cert_url": "https://www.googleapis.com/oauth2/v1/certs",
  "client_x509_cert_url": "https://www.googleapis.com/robot/v1/metadata/x509/compte-de-service-top-infos-li%40api-top-info-du-site-linfo.iam.gserviceaccount.com"
}
