194.250.129.161/32

194.3.180.40/29

194.3.187.95/32

194.3.187.69/32

194.3.183.8/29

194.3.187.60/32

194.3.181.208/28

194.3.182.32/28

194.3.187.91/32

194.3.187.21/32

212.234.102.9/32

81.252.50.176/30

194.250.129.179/32

194.3.176.32/29

194.3.187.15/32

194.3.180.144/29

213.223.45.36/32

80.12.213.40/32

80.12.212.43/32

80.12.213.41/32

197.227.34.252/32